454 = {

    # Misc
    culture = kheteratan
    religion = khetarchy
	holding = castle_holding

    # History
}

455 = {

    # Misc
    culture = kheteratan
    religion = khetarchy
	holding = castle_holding

    # History
}

456 = {

    # Misc
    culture = kheteratan
    religion = khetarchy
	holding = castle_holding

    # History
}

457 = {

    # Misc
    culture = kheteratan
    religion = khetarchy
	holding = castle_holding

    # History
}

462 = {

    # Misc
    culture = kheteratan
    religion = khetarchy
	holding = castle_holding

    # History
}

463 = {

    # Misc
    culture = kheteratan
    religion = khetarchy
	holding = castle_holding

    # History
}

464 = {

    # Misc
    culture = kheteratan
    religion = khetarchy
	holding = castle_holding

    # History
}

465 = {

    # Misc
    culture = kheteratan
    religion = khetarchy
	holding = castle_holding

    # History
}

466 = {

    # Misc
    culture = kheteratan
    religion = khetarchy
	holding = castle_holding

    # History
}

467 = {

    # Misc
    culture = kheteratan
    religion = khetarchy
	holding = castle_holding

    # History
}

468 = {

    # Misc
    culture = kheteratan
    religion = khetarchy
	holding = castle_holding

    # History
}

469 = {

    # Misc
    culture = kheteratan
    religion = khetarchy
	holding = castle_holding

    # History
}

470 = {

    # Misc
    culture = kheteratan
    religion = khetarchy
	holding = castle_holding

    # History
}

471 = {

    # Misc
    culture = kheteratan
    religion = khetarchy
	holding = castle_holding

    # History
}

472 = {

    # Misc
    culture = kheteratan
    religion = khetarchy
	holding = castle_holding

    # History
}

473 = {

    # Misc
    culture = kheteratan
    religion = khetarchy
	holding = castle_holding

    # History
}

474 = {

    # Misc
    culture = kheteratan
    religion = khetarchy
	holding = castle_holding

    # History
}

475 = {

    # Misc
    culture = kheteratan
    religion = khetarchy
	holding = castle_holding

    # History
}

476 = {

    # Misc
    culture = kheteratan
    religion = khetarchy
	holding = castle_holding

    # History
}

477 = {

    # Misc
    culture = kheteratan
    religion = khetarchy
	holding = castle_holding

    # History
}

478 = {

    # Misc
    culture = kheteratan
    religion = khetarchy
	holding = castle_holding

    # History
}

479 = {

    # Misc
    culture = kheteratan
    religion = khetarchy
	holding = castle_holding

    # History
	1000.1.1 = {
		special_building_slot = golkora_mines_01
		special_building = golkora_mines_01
	}
}

490 = {

    # Misc
    culture = kheteratan
    religion = khetarchy
	holding = castle_holding

    # History
}

491 = {

    # Misc
    culture = kheteratan
    religion = khetarchy
	holding = castle_holding

    # History
}

492 = {

    # Misc
    culture = shasoura
    religion = khetarchy
	holding = castle_holding

    # History
}

493 = {

    # Misc
    culture = shasoura
    religion = khetarchy
	holding = castle_holding

    # History
}

494 = {

    # Misc
    culture = east_divenori
    religion = khetarchy
	holding = castle_holding

    # History
}

495 = {

    # Misc
    culture = shasoura
    religion = khetarchy
	holding = castle_holding

    # History
}

496 = {

    # Misc
    culture = east_divenori
    religion = khetarchy
	holding = castle_holding

    # History
}

497 = {

    # Misc
    culture = shasoura
    religion = khetarchy
	holding = castle_holding

    # History
}

498 = {

    # Misc
    culture = shasoura
    religion = khetarchy
	holding = castle_holding

    # History
}

499 = {

    # Misc
    culture = shasoura
    religion = khetarchy
	holding = castle_holding

    # History
}

500 = {

    # Misc
    culture = shasoura
    religion = khetarchy
	holding = castle_holding

    # History
}

501 = {

    # Misc
    culture = shasoura
    religion = khetarchy
	holding = castle_holding

    # History
}

502 = {

    # Misc
    culture = kheteratan
    religion = khetarchy
	holding = castle_holding

    # History
}

503 = {

    # Misc
    culture = kheteratan
    religion = khetarchy
	holding = castle_holding

    # History
}

504 = {

    # Misc
    culture = shasoura
    religion = khetarchy
	holding = castle_holding

    # History
}

505 = {

    # Misc
    culture = shasoura
    religion = khetarchy
	holding = castle_holding

    # History
}

546 = {

    # Misc
    culture = kheteratan
    religion = khetarchy
	holding = castle_holding

    # History
}

592 = {

    # Misc
    culture = kheteratan
    religion = khetarchy
	holding = castle_holding

    # History
}

6088 = {

    # Misc
    culture = kheteratan
    religion = khetarchy
	holding = castle_holding

    # History
}

6089 = {

    # Misc
    culture = kheteratan
    religion = khetarchy
	holding = castle_holding

    # History
}